Reading and Writing data
…
Note: In this code, I have used the kable() function from the knitr package to create the summary table in a table format, rather than as basic R output. This function is very useful for formatting basic tables in R markdown documents. For more complex tables, check out the pander and xtable packages.

For the most part, you can read use read_table() and read_csv() pretty much anywhere you might use read.table() and read.csv(). In addition, if there are non-fatal problems that occur while reading in the data, you will get a warning and the returned data frame will have some information about which rows/observations triggered the warning. This can be very helpful for “debugging” problems with your data before you get neck deep in data analysis.

The importance of the read_csv() function is perhaps better understood from an historical perspective. R’s built in read.csv() function similarly reads CSV files, but the read_csv() function in readr builds on that by removing some of the quirks and “gotchas” of read.csv() as well as dramatically optimizing the speed with which it can read data into R. The read_csv() function also adds some nice user-oriented features like a progress meter and a compact method for specifying column types.

A typical call to read_csv() will look as follows.

library(readr)
teams <- read_csv(here("data", "team_standings.csv"))
teams

# A tibble: 32 × 2
   Standing Team       
      <dbl> <chr>      
 1        1 Spain      
 2        2 Netherlands
 3        3 Germany    
 4        4 Uruguay    
 5        5 Argentina  
 6        6 Brazil     
 7        7 Ghana      
 8        8 Paraguay   
 9        9 Japan      
10       10 Chile      
# … with 22 more rows
…
