Working with dates and times
…
Let’s take a look at the BEGIN_DATE_TIME and DEATHS_DIRECT variables

library(dplyr)
select(storm, BEGIN_DATE_TIME, EVENT_TYPE, DEATHS_DIRECT)

# A tibble: 52,409 × 3
   BEGIN_DATE_TIME    EVENT_TYPE       DEATHS_DIRECT
   <chr>              <chr>                    <dbl>
 1 29-DEC-04 18:00:00 Heavy Snow                   0
 2 29-DEC-04 18:00:00 Heavy Snow                   0
 3 08-DEC-04 18:00:00 Winter Storm                 0
 4 19-DEC-04 15:00:00 High Wind                    0
 5 14-DEC-04 06:00:00 Winter Weather               0
 6 21-DEC-04 04:00:00 Winter Storm                 0
 7 21-DEC-04 04:00:00 Winter Storm                 0
 8 26-DEC-04 15:00:00 Winter Storm                 0
 9 26-DEC-04 15:00:00 Winter Storm                 0
10 11-DEC-04 08:00:00 Storm Surge/Tide             0
# … with 52,399 more rows

We can first convert the date/time to a date/time R object.

storm_sub <- select(storm, BEGIN_DATE_TIME, EVENT_TYPE, DEATHS_DIRECT) %>%
  mutate(begin = dmy_hms(BEGIN_DATE_TIME)) %>%
  rename(type = EVENT_TYPE,
         deaths = DEATHS_DIRECT) %>%
  select(begin, type, deaths)
storm_sub

# A tibble: 52,409 × 3
   begin               type             deaths
   <dttm>              <chr>             <dbl>
 1 2004-12-29 18:00:00 Heavy Snow            0
 2 2004-12-29 18:00:00 Heavy Snow            0
 3 2004-12-08 18:00:00 Winter Storm          0
 4 2004-12-19 15:00:00 High Wind             0
 5 2004-12-14 06:00:00 Winter Weather        0
 6 2004-12-21 04:00:00 Winter Storm          0
 7 2004-12-21 04:00:00 Winter Storm          0
 8 2004-12-26 15:00:00 Winter Storm          0
 9 2004-12-26 15:00:00 Winter Storm          0
10 2004-12-11 08:00:00 Storm Surge/Tide      0
# … with 52,399 more rows
…
