Python for R users
…
Note that the reticulate Python engine is enabled by default within R Markdown whenever reticulate is installed.

From R to Python

Use R to read and manipulate data

library(tidyverse)
flights <- read_csv(here("data","flights.csv")) %>%
  filter(dest == "ORD") %>%
  select(carrier, dep_delay, arr_delay) %>%
  na.omit()

flights

# A tibble: 16,566 × 3
   carrier dep_delay arr_delay
   <chr>       <dbl>     <dbl>
 1 UA             -4        12
 2 AA             -2         8
 3 MQ              8        32
 4 AA             -1        14
 5 AA             -4         4
 6 UA              9        20
 7 UA              2        21
 8 AA             -6       -12
 9 MQ             39        49
10 B6             -2        15
# … with 16,556 more rows
…
