The ggplot2 plotting system: ggplot()
…
“Are overweight individuals, as measured by body mass index (BMI), more susceptible than normal weight individuals to the harmful effects of PM2.5 on asthma symptoms?”

There is a suggestion that overweight individuals may be more susceptible to the negative effects of inhaling PM2.5. This would suggest that increases in PM2.5 exposure in the home of an overweight child would be more deleterious to his/her asthma symptoms than they would be in the home of a normal weight child. We want to see if we can see that difference in the data from MAACS.

Because the individual-level data for this study are protected by various U.S. privacy laws, we cannot make those data available. For the purposes of this chapter, we have simulated data that share many of the same features of the original data, but do not contain any of the actual measurements or values contained in the original dataset.

We can look at the data quickly by reading it in as a tibble with read_csv() in the tidyverse package.

library(tidyverse)
library(here)
maacs <- read_csv(here("data", "bmi_pm25_no2_sim.csv"),
                  col_types = "nnci")
maacs

# A tibble: 517 × 4
   logpm25 logno2_new bmicat        NocturnalSympt
     <dbl>      <dbl> <chr>                  <int>
 1   1.25       1.18  normal weight              1
 2   1.12       1.55  overweight                 0
 3   1.93       1.43  normal weight              0
 4   1.37       1.77  overweight                 2
 5   0.775      0.765 normal weight              0
 6   1.49       1.11  normal weight              0
 7   2.16       1.43  normal weight              0
 8   1.65       1.40  normal weight              0
 9   1.55       1.81  normal weight              0
10   2.04       1.35  overweight                 3
# … with 507 more rows
…
