Project 1
…
# A tibble: 3 × 1
       x
   <dbl>
1 -2.56 
2 -0.184
3  1.42 

## Create a new column that indicates whether the value of 'x' is positive or negative
dat %>%
        mutate(is_positive = case_when(
                x >= 0 ~ "Yes",
                x < 0 ~ "No"
        ))

# A tibble: 100 × 2
        x is_positive
    <dbl> <chr>      
 1 -2.56  No         
 2 -0.184 No         
 3  1.42  Yes        
 4 -0.272 No         
 5  1.36  Yes        
 6 -0.246 No         
 7  0.172 Yes        
 8 -0.688 No         
 9 -0.301 No         
10  1.02  Yes        
# … with 90 more rows

# Add your solution here

Part 2: Convert nontidy data into tidy data

The goal of this part of the assignment is to take a dataset that is either messy or simply not tidy and to make them tidy datasets. The objective is to gain some familiarity with the functions in the dplyr, tidyr packages. You may find it helpful to review the section on spreading and gathering data.

Tasks

This dataset gives a set of 12 audio features (e.g. acousticness, liveness, speechiness, etc) and descriptors like duration, tempo, key, and mode for a set of 32833 songs (in addition to the artist, album name, album release date, etc).

spotify_songs

# A tibble: 32,833 × 23
   track_id  track_name   track_artist track_popularity track_album_id
   <chr>     <chr>        <chr>                   <dbl> <chr>         
 1 6f807x0i… I Don't Car… Ed Sheeran                 66 2oCs0DGTsRO98…
 2 0r7CVbZT… Memories - … Maroon 5                   67 63rPSO264uRjW…
 3 1z1Hg7Vb… All the Tim… Zara Larsson               70 1HoSmj2eLcsrR…
 4 75Fpbthr… Call You Mi… The Chainsm…               60 1nqYsOef1yKKu…
 5 1e8PAfcK… Someone You… Lewis Capal…               69 7m7vv9wlQ4i0L…
 6 7fvUMiya… Beautiful P… Ed Sheeran                 67 2yiy9cd2QktrN…
 7 2OAylPUD… Never Reall… Katy Perry                 62 7INHYSeusaFly…
 8 6b1RNvAc… Post Malone… Sam Feldt                  69 6703SRPsLkS4b…
 9 7bF6tCO3… Tough Love … Avicii                     68 7CvAfGvq4RlIw…
10 1IXGILkP… If I Can't … Shawn Mendes               67 4QxzbfSsVryEQ…
# … with 32,823 more rows, and 18 more variables:
#   track_album_name <chr>, track_album_release_date <chr>,
#   playlist_name <chr>, playlist_id <chr>, playlist_genre <chr>,
#   playlist_subgenre <chr>, danceability <dbl>, energy <dbl>,
#   key <dbl>, loudness <dbl>, mode <dbl>, speechiness <dbl>,
#   acousticness <dbl>, instrumentalness <dbl>, liveness <dbl>,
#   valence <dbl>, tempo <dbl>, duration_ms <dbl>
…
